\BOOKMARK [1][-]{section.1}{Introduction}{}% 1
\BOOKMARK [1][-]{section.2}{Institutional Background}{}% 2
\BOOKMARK [1][-]{section.3}{Rational Bubbles: Theory and Econometric Tests}{}% 3
\BOOKMARK [2][-]{subsection.3.1}{Cross-listed Securities}{section.3}% 4
\BOOKMARK [1][-]{section.4}{Empirical Results}{}% 5
\BOOKMARK [2][-]{subsection.4.1}{A and H Shares}{section.4}% 6
\BOOKMARK [2][-]{subsection.4.2}{Chinese American Depository Receipts}{section.4}% 7
\BOOKMARK [2][-]{subsection.4.3}{Alternative Sources of AH Premia}{section.4}% 8
\BOOKMARK [1][-]{section.5}{Conclusion}{}% 9
\BOOKMARK [1][-]{appendix.A}{Appendix}{}% 10
\BOOKMARK [2][-]{subsection.A.1}{Recursive Unit Root Tests}{appendix.A}% 11
\BOOKMARK [2][-]{subsection.A.2}{The IVX Testing Procedure}{appendix.A}% 12
\BOOKMARK [2][-]{subsection.A.3}{Dynamic Panel Probit Results for Forward Exchange Rates}{appendix.A}% 13
